Building a Predictive Model on Covid-19 Risk
…
setwd("C:/Users/18586/Desktop/PSTAT 131/PSTAT-131-final-project/models")
load("pandemic_cum.rda")

pandemic_cum <- pandemic_cum %>%
  dplyr::select(-c("prop", "confirmed_cases", "population"))

pred <- predict(bag_final_fit, new_data = pandemic_cum[,-1])
pred <- bind_cols(pred, pandemic_cum %>% select(c(risk,ID_co)))

# communities incorrectly classified
pred %>% 
  filter(.pred_class != risk) 

# A tibble: 68 × 3
   .pred_class risk     ID_co    
   <fct>       <fct>    <chr>    
 1 high        moderate 90802_37 
 2 moderate    high     90810_37 
 3 moderate    low      91362_111
 4 low         moderate 92109_73 
 5 low         moderate 92110_73 
 6 moderate    low      92116_73 
 7 low         moderate 92117_73 
 8 high        moderate 93015_111
 9 low         moderate 93220_29 
10 low         moderate 93224_29 
# … with 58 more rows
…
